fpga/wave.vcd
$date
  Tue Jul 19 20:02:58 2022
$end
$version
  GHDL v0
$end
$timescale
  1 fs
$end
$var reg 1 ! sck $end
$var reg 4 " count[3:0] $end
$var reg 1 # mosi $end
$var reg 1 $ miso $end
$var reg 8 % i_byte[7:0] $end
$var reg 8 & o_byte[7:0] $end
$var integer 32 ' i $end
$scope module uut $end
$var reg 1 ( sck $end
$var reg 4 ) count[3:0] $end
$var reg 1 * mosi $end
$var reg 1 + miso $end
$var reg 8 , i_byte[7:0] $end
$var reg 8 - o_byte[7:0] $end
$scope module uut $end
$var reg 1 . clk $end
$var reg 4 / count[3:0] $end
$var reg 1 0 i_bit $end
$var reg 1 1 o_bit $end
$var reg 8 2 i_byte[7:0] $end
$var reg 8 3 o_byte[7:0] $end
$var reg 1 4 r_bit_out $end
$var reg 8 5 r_bit_down[7:0] $end
$var reg 8 6 r_bit_up[7:0] $end
$var reg 8 7 r_byte[7:0] $end
$var reg 8 8 r_byte_out[7:0] $end
$var reg 4 9 o_count[3:0] $end
$upscope $end
$upscope $end
$enddefinitions $end
#0
0!
b0000 "
0#
U$
b10101010 %
bUUUUUUUU &
b0 '
0(
b0000 )
0*
U+
b10101010 ,
bUUUUUUUU -
0.
b0000 /
00
U1
b10101010 2
bUUUUUUUU 3
U4
b10000000 5
b00000001 6
bUUUUUUUU 7
bUUUUUUUU 8
b0000 9
#100000000
1!
b0001 "
b10101010 &
b1 '
1(
b0001 )
b10101010 -
1.
b0001 /
b10101010 3
b10101010 7
b0001 9
#200000000
0!
b10 '
0(
0.
#300000000
1!
b0010 "
0$
b01010101 &
b11 '
1(
b0010 )
0+
b01010101 -
1.
b0010 /
01
b01010101 3
04
b01010101 7
b0010 9
#400000000
0!
b100 '
0(
0.
#500000000
1!
b0011 "
1$
b00101010 &
b101 '
1(
b0011 )
1+
b00101010 -
1.
b0011 /
11
b00101010 3
14
b00101010 7
b0011 9
#600000000
0!
b110 '
0(
0.
#700000000
1!
b0100 "
0$
b00010101 &
b111 '
1(
b0100 )
0+
b00010101 -
1.
b0100 /
01
b00010101 3
04
b00010101 7
b0100 9
#800000000
0!
b1000 '
0(
0.
#900000000
1!
b0101 "
1$
b00001010 &
b1001 '
1(
b0101 )
1+
b00001010 -
1.
b0101 /
11
b00001010 3
14
b00001010 7
b0101 9
#1000000000
0!
1#
b1010 '
0(
1*
0.
10
#1100000000
1!
b0110 "
0$
b10000101 &
b1011 '
1(
b0110 )
0+
b10000101 -
1.
b0110 /
01
b10000101 3
04
b10000101 7
b0110 9
#1200000000
0!
b1100 '
0(
0.
#1300000000
1!
b0111 "
1$
b11000010 &
b1101 '
1(
b0111 )
1+
b11000010 -
1.
b0111 /
11
b11000010 3
14
b11000010 7
b0111 9
#1400000000
0!
b1110 '
0(
0.
#1500000000
1!
b1000 "
0$
b11100001 &
b1111 '
1(
b1000 )
0+
b11100001 -
1.
b1000 /
01
b11100001 3
04
b11100001 7
b1000 9
#1600000000
0!
b10000 '
0(
0.
#1700000000
1!
b1001 "
1$
b11110000 &
b10001 '
1(
b1001 )
1+
b11110000 -
1.
b1001 /
11
b11110000 3
14
b11110000 7
b1001 9
#1800000000
0!
b10010 '
0(
0.
#1900000000
1!
b1010 "
b10011 '
1(
b1010 )
1.
b1010 /
b1010 9
#2000000000
0!
b10100 '
0(
0.
#2100000000
1!
b1011 "
b10101 '
1(
b1011 )
1.
b1011 /
b1011 9
#2200000000
0!
b10110 '
0(
0.
#2300000000
1!
b1100 "
b10111 '
1(
b1100 )
1.
b1100 /
b1100 9
#2400000000
0!
b11000 '
0(
0.
#2500000000
1!
b1101 "
b11001 '
1(
b1101 )
1.
b1101 /
b1101 9
#2600000000
0!
b11010 '
0(
0.
#2700000000
1!
b1110 "
b11011 '
1(
b1110 )
1.
b1110 /
b1110 9
#2800000000
0!
b11100 '
0(
0.
#2900000000
1!
b1111 "
b11101 '
1(
b1111 )
1.
b1111 /
b1111 9
#3000000000
0!
b11110 '
0(
0.
#3100000000
1!
b0000 "
1(
b0000 )
1.
b0000 /
b0000 9
